…
ColNames = c("SUBJ", "nTIME", "TIME", "CONC")
Conc = matrix(nrow=nSubj*nObs, ncol=length(ColNames))
colnames(Conc) = ColNames
Conc = as.data.frame(Conc)
Conc[,"SUBJ"] = sort(rep(1:nSubj, nObs))
Conc[,"nTIME"] = rep(Time, nSubj) ; Conc

## # A tibble: 132 x 4
##     SUBJ nTIME  TIME  CONC
##    <int> <dbl> <lgl> <lgl>
##  1     1  0.00    NA    NA
##  2     1  0.25    NA    NA
##  3     1  0.50    NA    NA
##  4     1  1.00    NA    NA
##  5     1  2.00    NA    NA
##  6     1  4.00    NA    NA
##  7     1  5.00    NA    NA
##  8     1  7.00    NA    NA
##  9     1  9.00    NA    NA
## 10     1 12.00    NA    NA
## # ... with 122 more rows

for (i in 1:nSubj) {
  cSubj = i
  cCL = iPK[i, 1]
  cV  = iPK[i, 2]
  iConc = pk1cima(cCL, cV, DH1, Time, PropE=0.1, AddE=1, LLoQ=0, Jitter=2)
  Conc[Conc$SUBJ == cSubj, c("TIME", "CONC")] = iConc
}

Conc[,"CONC"] = round(Conc[,"CONC"],3) ; Conc

## # A tibble: 132 x 4
##     SUBJ nTIME  TIME    CONC
##    <int> <dbl> <dbl>   <dbl>
##  1     1  0.00  0.01 826.346
##  2     1  0.25  0.22 844.089
##  3     1  0.50  0.48 944.024
##  4     1  1.00  1.02 663.553
##  5     1  2.00  2.05 605.957
##  6     1  4.00  4.00 512.093
##  7     1  5.00  5.03 401.849
##  8     1  7.00  7.04 290.752
##  9     1  9.00  9.00 195.621
## 10     1 12.00 12.05  87.698
## # ... with 122 more rows
…
