…
Conc

## # A tibble: 936 x 7
##     SUBJ   GRP   PRD   TRT nTIME  TIME   CONC
##    <int> <chr> <int> <chr> <dbl> <dbl>  <dbl>
##  1     1    RT     1     R  0.00  0.01  13.02
##  2     1    RT     1     R  0.25  0.28 262.49
##  3     1    RT     1     R  0.50  0.46 382.91
##  4     1    RT     1     R  0.75  0.76 492.91
##  5     1    RT     1     R  1.00  1.02 491.07
##  6     1    RT     1     R  2.00  1.99 584.89
##  7     1    RT     1     R  3.00  3.01 472.90
##  8     1    RT     1     R  4.00  3.96 405.08
##  9     1    RT     1     R  6.00  6.05 315.11
## 10     1    RT     1     R  8.00  7.98 352.20
## # ... with 926 more rows
…
##  [1]  1  2  3  4  5  6  7  8  9 10 11 12 13 14 15 16 17 18 19 20 21 22 23
## [24] 24 25 26 27 28 29 30 31 32 33 34 35 36

Conc[,"ID"] = paste0(Conc[,"SUBJ"], Conc[,"TRT"])

library(ncar)
resNCA = tabNCA(Conc, colSubj="ID", colTime="TIME", colConc="CONC", dose=100000)
#rtfNCA("NCAres.rtf", Conc, colSubj="ID", colTime="TIME", colConc="CONC", dose=100000)

Rand = unique(Conc[,c("ID", "SUBJ","GRP","PRD","TRT")])
resBE = merge(resNCA[,c("ID","TMAX","CMAX","AUCLST")], Rand, by="ID")
resBE = resBE[order(resBE[,"SUBJ"], resBE[,"PRD"]),] ; resBE

## # A tibble: 72 x 8
##        ID   TMAX   CMAX     AUCLST  SUBJ   GRP   PRD   TRT
##  * <fctr> <fctr> <fctr>     <fctr> <int> <chr> <int> <chr>
##  1     1R   1.99 584.89 5697.89785     1    RT     1     R
##  2     1T   1.03 869.89 6714.21495     1    RT     2     T
##  3     2R   1.98 656.59  3788.6962     2    RT     1     R
##  4     2T   2.04  907.9  5010.4569     2    RT     2     T
##  5     3R   1.95 610.42 4239.03915     3    RT     1     R
##  6     3T   1.96 672.85  4019.2116     3    RT     2     T
##  7     4T   0.99 651.75  4037.7717     4    TR     1     T
##  8     4R   0.95 820.18  3936.8065     4    TR     2     R
##  9     5T      1 941.35   5544.474     5    TR     1     T
## 10     5R   1.97 772.76  4414.0113     5    TR     2     R
## # ... with 62 more rows
…
